文献复现
…
file = xfun::magic_path('AlSi_shell_comp_for_R_stats.csv')
AlSi_data <- read.csv(file)
resAl.aov <- aov(AlSi ~ Source, data = AlSi_data)
summary(resAl.aov)

Composition ((Mg+Al+Fe)/Si) of sed-free ANME-SRB consortia

#Read data file for composition ((Mg+Al+Fe)/Si) of sed-free ANME-SRB consortia,
# ANME-SRB consortia in sediments and sediments without ANME-SRB consortia
file = xfun::magic_path("Dataset S3.xlsx")
octtet_data <- read_excel(file)

octtet_data

# A tibble: 425 × 5
   mg_al_fe_to_si Source                          Basin source_order basin_order
            <dbl> <chr>                           <chr>        <dbl>       <dbl>
 1           0.07 Aggregate-attached, Sediment-f… Sant…            3           3
 2           0.35 Aggregate-attached, Sediment-f… Sant…            3           3
 3           0.29 Aggregate-attached, Sediment-f… Sant…            3           3
 4           0.29 Aggregate-attached, Sediment-f… Sant…            3           3
 5           0.04 Aggregate-attached, Sediment-f… Sant…            3           3
 6           0.41 Aggregate-attached, Sediment-f… Sant…            3           3
 7           0.4  Aggregate-attached, Sediment-f… Sant…            3           3
 8           0.12 Aggregate-attached, Sediment-f… Sant…            3           3
 9           0.34 Aggregate-attached, Sediment-f… Sant…            3           3
10           0.19 Aggregate-attached, Sediment-f… Sant…            3           3
# ℹ 415 more rows
…
# + scale_color_brewer(palette = "Blues")
# + geom_violin(aes(new_source_order,octtet)) + geom_point(aes(octtet_data$ID)) + geom_jitter(width=0.3,aes(color=octtet_data$ID), size=2.5)#

Composition (Al/Si) of sed-free ANME-SRB consortia

#Read data file for composition (Al/Si) of sed-free ANME-SRB consortia,
# ANME-SRB consortia in sediments and sediments without ANME-SRB consortia
AlSi_data <- read_excel(xfun::magic_path('Dataset S2.xlsx'))
AlSi_data

# A tibble: 425 × 5
   Al.per.Si Source                           Basin `Source order` `Basin order`
       <dbl> <chr>                            <chr>          <dbl>         <dbl>
 1    0      Aggregate-attached, Sediment-fr… Sant…              3             3
 2    0.196  Aggregate-attached, Sediment-fr… Sant…              3             3
 3    0.181  Aggregate-attached, Sediment-fr… Sant…              3             3
 4    0.182  Aggregate-attached, Sediment-fr… Sant…              3             3
 5    0.0285 Aggregate-attached, Sediment-fr… Sant…              3             3
 6    0.315  Aggregate-attached, Sediment-fr… Sant…              3             3
 7    0.238  Aggregate-attached, Sediment-fr… Sant…              3             3
 8    0.0657 Aggregate-attached, Sediment-fr… Sant…              3             3
 9    0.194  Aggregate-attached, Sediment-fr… Sant…              3             3
10    0.146  Aggregate-attached, Sediment-fr… Sant…              3             3
# ℹ 415 more rows
…
